test_run_dir/should_calculate_the_CRC/CRC.vcd
$date
2023-08-03T05:14+0000
$end
$version
0.2
$end
$comment

$end
$timescale 1ns  $end
$scope module CRC $end
 $var wire 16 ! io_debug $end
 $var wire 1 " bit $end
 $var wire 2 # io_debug_lo_lo_lo $end
 $var wire 2 $ io_debug_lo_hi_lo $end
 $var wire 2 % io_debug_lo_hi_hi $end
 $var wire 1 & io_en $end
 $var wire 2 ' io_debug_lo_lo_hi $end
 $var wire 1 ( io_in $end
 $var wire 1 ) clock $end
 $var wire 4 * io_debug_hi_hi $end
 $var wire 4 + io_debug_hi_lo $end
 $var wire 4 , io_debug_lo_lo $end
 $var wire 1 - reset $end
 $var wire 4 . io_debug_lo_hi $end
 $var wire 1 / io_out $end
 $var wire 1 0 lfsr_8 $end
 $var wire 1 1 lfsr_9 $end
 $var wire 1 2 lfsr_6 $end
 $var wire 1 3 lfsr_7 $end
 $var wire 1 4 lfsr_4 $end
 $var wire 1 5 lfsr_5 $end
 $var wire 1 6 lfsr_2 $end
 $var wire 1 7 lfsr_3 $end
 $var wire 1 8 lfsr_0 $end
 $var wire 1 9 lfsr_1 $end
 $var wire 8 : io_debug_hi $end
 $var wire 8 ; io_debug_lo $end
 $var wire 2 < io_debug_hi_lo_lo $end
 $var wire 2 = io_debug_hi_lo_hi $end
 $var wire 1 > lfsr_14 $end
 $var wire 1 ? lfsr_13 $end
 $var wire 2 @ io_debug_hi_hi_hi $end
 $var wire 1 A lfsr_15 $end
 $var wire 1 B lfsr_10 $end
 $var wire 2 C io_debug_hi_hi_lo $end
 $var wire 1 D lfsr_12 $end
 $var wire 1 E lfsr_11 $end
$upscope $end
$enddefinitions $end
$dumpvars
b0000000000000000 !
00
01
02
03
04
b00 =
05
b00 <
06
07
08
09
0>
0?
b00000000 ;
0A
b00000000 :
0B
b00 '
0D
0E
b00 %
b00 $
b00 #
b0000 ,
b0000 *
b0000 +
0"
b0000 .
0&
0(
0)
b00 @
0-
b00 C
0/
$end
#0
1-
#1
1)
#6
1&
0)
0-
#11
1)
#16
1"
1(
0)
1/
#21
b0001000000100001 !
b01 #
b01 C
b10 $
1D
1)
b0001 *
b0001 ,
b0010 .
15
18
b00010000 :
b00100001 ;
#26
0)
#31
b0011000001100011 !
b11 #
b11 C
b01 %
1)
b0011 *
b0011 ,
b0110 .
12
19
b00110000 :
b01100011 ;
1?
#36
0"
0(
0)
0/
#41
b01 @
b0110000011000110 !
b10 #
b10 C
b00 $
0D
b11 %
b01 '
1)
b0110 *
b0110 ,
b1100 .
13
05
16
08
b01100000 :
b11000110 ;
1>
#46
0)
#51
b11 @
b1100000110001100 !
1A
1"
b00 #
b00 C
b10 %
b11 '
1)
b1100 *
b0001 +
b1100 ,
b1000 .
10
02
17
09
b11000001 :
b10001100 ;
b01 <
0?
#56
0"
1(
0)
1/
#61
b10 @
b1000001100011000 !
b01 $
b00 %
b10 '
1)
b1000 *
b0011 +
b1000 ,
b0001 .
11
03
14
06
b10000011 :
b00011000 ;
b11 <
0>
#66
0)
#71
b00 @
b0000011000110000 !
0A
1"
1B
b11 $
b00 '
1)
b0000 *
b0110 +
b0000 ,
b0011 .
00
15
07
b00000110 :
b00110000 ;
b10 <
b01 =
#76
0"
0(
0)
0/
#81
b0000110001100000 !
b10 $
b01 %
1E
1)
b1100 +
b0110 .
01
12
04
b00001100 :
b01100000 ;
b00 <
b11 =
#86
0)
#91
b0001100011000000 !
0B
b01 C
b00 $
1D
b11 %
1)
b0001 *
b1000 +
b1100 .
13
05
b00011000 :
b11000000 ;
b10 =
#96
1"
1(
0)
1/
#101
b0010000110100001 !
b01 #
b10 C
b10 $
0D
b10 %
0E
1)
b0010 *
b0001 +
b0001 ,
b1010 .
10
02
15
18
b00100001 :
b10100001 ;
b01 <
b00 =
1?
#106
0)
#111
b01 @
b0101001101100011 !
b11 #
b01 C
1D
b01 %
1)
b0101 *
b0011 +
b0011 ,
b0110 .
11
12
03
19
b01010011 :
b01100011 ;
b11 <
1>
0?
#116
0"
0(
0)
0/
#121
b10 @
1A
1B
b10 C
0D
b1010011011000110 !
1"
b10 #
b00 $
b11 %
b01 '
1)
b1010 *
b0110 +
b0110 ,
b1100 .
00
13
05
16
08
b10100110 :
b11000110 ;
b10 <
b01 =
0>
1?
#126
0"
1(
0)
1/
#131
b01 @
0A
b00 C
1E
b0100110110001100 !
1"
b00 #
b10 %
b11 '
1)
b0100 *
b1101 +
b1100 ,
b1000 .
10
01
02
17
09
b01001101 :
b10001100 ;
b01 <
b11 =
1>
0?
#136
0)
#141
b10 @
1A
0B
b1000101100111001 !
0"
b01 #
b11 $
b00 %
b10 '
1)
b1000 *
b1011 +
b1001 ,
b0011 .
11
03
14
15
06
18
b10001011 :
b00111001 ;
b11 <
b10 =
0>
#146
0)
#151
b00 @
0A
1B
b01 C
1D
0E
b0001011001110010 !
1"
b10 #
b01 %
b00 '
1)
b0001 *
b0110 +
b0010 ,
b0111 .
00
12
07
08
19
b00010110 :
b01110010 ;
b10 <
b01 =
#156
0)
#161
b11 C
1E
b0011110011000101 !
b01 #
b00 $
b11 %
b01 '
1)
b0011 *
b1100 +
b0101 ,
b1100 .
01
13
04
05
16
18
09
b00111100 :
b11000101 ;
b00 <
b11 =
1?
#166
0"
0(
0)
0/
#171
b01 @
b0111100110001010 !
0B
b10 #
b10 %
b10 '
1)
b0111 *
b1001 +
b1010 ,
b1000 .
10
02
06
17
08
19
b01111001 :
b10001010 ;
b01 <
b10 =
1>
#176
1"
1(
0)
1/
#181
b11 @
1A
b10 C
0D
0E
b1110001100110101 !
0"
b01 #
b11 $
b00 %
b01 '
1)
b1110 *
b0011 +
b0101 ,
b0011 .
11
03
14
15
16
07
18
09
b11100011 :
b00110101 ;
b11 <
b00 =
#186
0)
#191
1B
b00 C
b1100011001101010 !
b10 #
b10 $
b01 %
b10 '
1)
b1100 *
b0110 +
b1010 ,
b0110 .
00
12
04
06
17
08
19
b11000110 :
b01101010 ;
b10 <
b01 =
0?
#196
1"
0(
0)
0/
#201
b10 @
b01 C
1D
1E
b1001110011110101 !
b01 #
b11 $
b11 %
b01 '
1)
b1001 *
b1100 +
b0101 ,
b1111 .
01
13
14
16
07
18
09
b10011100 :
b11110101 ;
b00 <
b11 =
0>
#206
0"
1(
0)
1/
#211
b00 @
0A
0B
b11 C
b0011100111101010 !
1"
b10 #
b10 $
b10 '
1)
b0011 *
b1001 +
b1010 ,
b1110 .
10
04
06
17
08
19
b00111001 :
b11101010 ;
b01 <
b10 =
1?
#216
0)
#221
b01 @
b10 C
0D
0E
b0110001111110101 !
b01 #
b11 $
b01 '
1)
b0110 *
b0011 +
b0101 ,
b1111 .
11
14
16
07
18
09
b01100011 :
b11110101 ;
b11 <
b00 =
1>
#226
0)
#231
b11 @
1A
1B
b01 C
1D
b1101011111001011 !
0"
b11 #
b00 $
b10 '
1)
b1101 *
b0111 +
b1011 ,
b1100 .
04
05
06
17
19
b11010111 :
b11001011 ;
b01 =
0?
#236
0)
#241
b10 @
b10 C
0D
1E
b1010111110010110 !
b10 #
b01 $
b10 %
b01 '
1)
b1010 *
b1111 +
b0110 ,
b1001 .
02
14
16
07
08
b10101111 :
b10010110 ;
b11 =
0>
1?
#246
0&
0)
#251
b01 @
b0101111100101100 !
0A
b00 #
b01 C
b10 $
1D
b00 %
b11 '
1)
b0101 *
b1100 ,
b0010 .
0/
03
04
15
17
09
b01011111 :
b00101100 ;
1>
0?
#256
0)
#261
b10 @
b1011111001011000 !
1A
b11 C
b01 $
b01 %
b10 '
1)
b1011 *
b1110 +
b1000 ,
b0101 .
1/
00
12
14
05
06
b10111110 :
b01011000 ;
b10 <
0>
1?
#266
0)
#271
b01 @
b0111110010110000 !
0A
b11 $
b10 %
b00 '
1)
b0111 *
b1100 +
b0000 ,
b1011 .
0/
01
02
13
15
07
b01111100 :
b10110000 ;
b00 <
1>
#276
0)
#281
b11 @
b1111100101100000 !
1A
0B
b10 $
b01 %
1)
b1111 *
b1001 +
b0110 .
1/
10
12
03
04
b11111001 :
b01100000 ;
b01 <
b10 =
#286
0)
#291
b1111001011000000 !
b00 $
b11 %
0E
1)
b0010 +
b1100 .
00
11
13
05
b11110010 :
b11000000 ;
b10 <
b00 =
#296
0)
#301
b1110010110000000 !
1B
b10 C
0D
b10 %
1)
b1110 *
b0101 +
b1000 .
10
01
02
b11100101 :
b10000000 ;
b01 <
b01 =
#306
0)
#311
b1100101100000000 !
0B
b00 C
b00 %
1E
1)
b1100 *
b1011 +
b0000 .
11
03
b11001011 :
b00000000 ;
b11 <
b10 =
0?
#316
0)
#321
b10 @
b1001011000000000 !
1B
b01 C
1D
0E
1)
b1001 *
b0110 +
00
b10010110 :
b10 <
b01 =
0>
#326
0)
#331
b00 @
b0010110000000000 !
0A
b10 C
0D
1E
1)
b0010 *
b1100 +
0/
01
b00101100 :
b00 <
b11 =
1?
#336
0)
#341
b01 @
b0101100000000000 !
0B
b01 C
1D
1)
b0101 *
b1000 +
b01011000 :
b10 =
1>
0?
#346
0)
#351
b10 @
b1011000000000000 !
1A
b11 C
0E
1)
b1011 *
b0000 +
1/
b10110000 :
b00 =
0>
1?
#356
0)
#361
b01 @
b0110000000000000 !
0A
b10 C
0D
1)
b0110 *
b01100000 :
1>
0/
#366
0)
#371
b11 @
b1100000000000000 !
1A
b00 C
1)
b1100 *
b11000000 :
1/
0?
#376
0)
#381
b10 @
b1000000000000000 !
1)
b1000 *
b10000000 :
0>
#386
0)
#391
b00 @
b0000000000000000 !
0A
1)
b0000 *
b00000000 :
0/
#396
0)
#401
1)
#406
0(
0)
